..........
----------------------------------------------------------------------
Ran 10 tests in 0.001s

OK
Name               Stmts   Miss Branch BrPart  Cover   Missing
--------------------------------------------------------------
Diplomacy.py          49      0     38      0   100%
TestDiplomacy.py      48      0      0      0   100%
--------------------------------------------------------------
TOTAL                 97      0     38      0   100%
